<?xml version="1.0" encoding="UTF-8" standalone="no"?>
<!-- Created with Inkscape (http://www.inkscape.org/) -->

<svg
   xmlns:dc="http://purl.org/dc/elements/1.1/"
   xmlns:cc="http://creativecommons.org/ns#"
   xmlns:rdf="http://www.w3.org/1999/02/22-rdf-syntax-ns#"
   xmlns:svg="http://www.w3.org/2000/svg"
   xmlns="http://www.w3.org/2000/svg"
   xmlns:sodipodi="http://sodipodi.sourceforge.net/DTD/sodipodi-0.dtd"
   xmlns:inkscape="http://www.inkscape.org/namespaces/inkscape"
   width="64"
   height="64"
   viewBox="0 0 16.933333 16.933334"
   version="1.1"
   id="svg873"
   inkscape:version="0.92.4 (unknown)"
   sodipodi:docname="emblem-dropbox-app.svg">
  <defs
     id="defs867" />
  <sodipodi:namedview
     id="base"
     pagecolor="#ffffff"
     bordercolor="#666666"
     borderopacity="1.0"
     inkscape:pageopacity="0.0"
     inkscape:pageshadow="2"
     inkscape:zoom="13.78125"
     inkscape:cx="32"
     inkscape:cy="32"
     inkscape:document-units="px"
     inkscape:current-layer="layer1"
     showgrid="false"
     units="px"
     inkscape:window-width="1855"
     inkscape:window-height="1056"
     inkscape:window-x="65"
     inkscape:window-y="24"
     inkscape:window-maximized="1" />
  <metadata
     id="metadata870">
    <rdf:RDF>
      <cc:Work
         rdf:about="">
        <dc:format>image/svg+xml</dc:format>
        <dc:type
           rdf:resource="http://purl.org/dc/dcmitype/StillImage" />
        <dc:title></dc:title>
      </cc:Work>
    </rdf:RDF>
  </metadata>
  <g
     inkscape:label="Layer 1"
     inkscape:groupmode="layer"
     id="layer1"
     transform="translate(0,-280.06665)">
    <g
       transform="matrix(0.35277748,0,0,0.35277748,-169.97894,265.60278)"
       style="display:inline;enable-background:new"
       id="g2364">
      <rect
         style="display:inline;overflow:visible;visibility:visible;fill:none;fill-opacity:1;fill-rule:nonzero;stroke:none;stroke-width:1.99999988;marker:none;enable-background:accumulate"
         id="rect2224"
         width="48"
         height="48"
         x="481.83051"
         y="40.999992"
         inkscape:label="48x48" />
      <rect
         ry="21"
         rx="21"
         y="-526.83057"
         x="-86.999992"
         height="42"
         width="42"
         id="rect2226"
         style="display:inline;opacity:0.2;fill:#000000;fill-opacity:1;stroke:none;stroke-width:1.02439022;stroke-miterlimit:4;stroke-dasharray:none;stroke-opacity:0.25098039;enable-background:new"
         transform="matrix(0,-1,-1,0,0,0)" />
      <rect
         ry="21"
         rx="21"
         y="-526.83057"
         x="-86.999992"
         height="42"
         width="42"
         id="rect2228"
         style="display:inline;opacity:0.1;fill:#000000;fill-opacity:1;stroke:none;stroke-width:1.04999995;stroke-opacity:0.25098039;enable-background:new"
         transform="matrix(0,-1,-1,0,0,0)" />
      <rect
         transform="matrix(0,-1,-1,0,0,0)"
         style="display:inline;fill:#76c22b;fill-opacity:1;stroke:none;stroke-width:1.02439022;stroke-miterlimit:4;stroke-dasharray:none;stroke-opacity:0.25098039;enable-background:new"
         id="rect2230"
         width="42"
         height="42"
         x="-85.999992"
         y="-526.83057"
         rx="21"
         ry="21" />
      <path
         inkscape:connector-curvature="0"
         d="m 498.69907,56.499992 c -0.9129,0 -1.3685,0 -1.3685,1.0625 v 1.275 c 0,1.0625 0.4556,1.0625 1.3685,1.0625 h 0.663 c 0.9129,0 1.3685,0 1.3685,-1.0625 v -1.275 c 0,-1.0251 -0.4556,-1.0625 -1.3685,-1.0625 z m 6.8,0 c -0.9129,0 -1.3685,0 -1.3685,1.0625 v 1.275 c 0,1.0625 0.4556,1.0625 1.3685,1.0625 h 0.663 c 0.9129,0 1.3685,0 1.3685,-1.0625 v -1.275 c 0,-1.0251 -0.4556,-1.0625 -1.3685,-1.0625 z m 6.8,0 c -0.9129,0 -1.3685,0 -1.3685,1.0625 v 1.275 c 0,1.0625 0.4556,1.0625 1.3685,1.0625 h 0.663 c 0.9129,0 1.3685,0 1.3685,-1.0625 v -1.275 c 0,-1.0251 -0.4556,-1.0625 -1.3685,-1.0625 z m -13.6,6.8 c -0.9129,0 -1.3685,0 -1.3685,1.0625 v 1.275 c 0,1.0625 0.4556,1.0625 1.3685,1.0625 h 0.663 c 0.9129,0 1.3685,0 1.3685,-1.0625 v -1.275 c 0,-1.0251 -0.4556,-1.0625 -1.3685,-1.0625 z m 6.8,0 c -0.9129,0 -1.3685,0 -1.3685,1.0625 v 1.275 c 0,1.0625 0.4556,1.0625 1.3685,1.0625 h 0.663 c 0.9129,0 1.3685,0 1.3685,-1.0625 v -1.275 c 0,-1.0251 -0.4556,-1.0625 -1.3685,-1.0625 z m 6.8,0 c -0.9129,0 -1.3685,0 -1.3685,1.0625 v 1.275 c 0,1.0625 0.4556,1.0625 1.3685,1.0625 h 0.663 c 0.9129,0 1.3685,0 1.3685,-1.0625 v -1.275 c 0,-1.0251 -0.4556,-1.0625 -1.3685,-1.0625 z m -13.6,6.8 c -0.9129,0 -1.3685,0 -1.3685,1.0625 v 1.275 c 0,1.0625 0.4556,1.0625 1.3685,1.0625 h 0.663 c 0.9129,0 1.3685,0 1.3685,-1.0625 v -1.275 c 0,-1.0251 -0.4556,-1.0625 -1.3685,-1.0625 z m 6.8,0 c -0.9129,0 -1.3685,0 -1.3685,1.0625 v 1.275 c 0,1.0625 0.4556,1.0625 1.3685,1.0625 h 0.663 c 0.9129,0 1.3685,0 1.3685,-1.0625 v -1.275 c 0,-1.0251 -0.4556,-1.0625 -1.3685,-1.0625 z m 6.8,0 c -0.9129,0 -1.3685,0 -1.3685,1.0625 v 1.275 c 0,1.0625 0.4556,1.0625 1.3685,1.0625 h 0.663 c 0.9129,0 1.3685,0 1.3685,-1.0625 v -1.275 c 0,-1.0251 -0.4556,-1.0625 -1.3685,-1.0625 z"
         style="color:#000000;overflow:visible;fill:#ffffff;fill-opacity:1;stroke-width:1.69999993;marker:none"
         overflow="visible"
         id="path2331" />
    </g>
  </g>
</svg>
