<?xml version="1.0" encoding="UTF-8" standalone="no"?>
<!-- Created with Inkscape (http://www.inkscape.org/) -->

<svg
   xmlns:dc="http://purl.org/dc/elements/1.1/"
   xmlns:cc="http://creativecommons.org/ns#"
   xmlns:rdf="http://www.w3.org/1999/02/22-rdf-syntax-ns#"
   xmlns:svg="http://www.w3.org/2000/svg"
   xmlns="http://www.w3.org/2000/svg"
   xmlns:sodipodi="http://sodipodi.sourceforge.net/DTD/sodipodi-0.dtd"
   xmlns:inkscape="http://www.inkscape.org/namespaces/inkscape"
   width="64"
   height="64"
   viewBox="0 0 16.933333 16.933334"
   version="1.1"
   id="svg873"
   inkscape:version="0.92.4 (unknown)"
   sodipodi:docname="emblem-dropbox-infinite.svg">
  <defs
     id="defs867" />
  <sodipodi:namedview
     id="base"
     pagecolor="#ffffff"
     bordercolor="#666666"
     borderopacity="1.0"
     inkscape:pageopacity="0.0"
     inkscape:pageshadow="2"
     inkscape:zoom="6.890625"
     inkscape:cx="20.983882"
     inkscape:cy="36.201046"
     inkscape:document-units="px"
     inkscape:current-layer="layer1"
     showgrid="false"
     units="px"
     inkscape:window-width="1855"
     inkscape:window-height="1056"
     inkscape:window-x="65"
     inkscape:window-y="24"
     inkscape:window-maximized="1" />
  <metadata
     id="metadata870">
    <rdf:RDF>
      <cc:Work
         rdf:about="">
        <dc:format>image/svg+xml</dc:format>
        <dc:type
           rdf:resource="http://purl.org/dc/dcmitype/StillImage" />
        <dc:title></dc:title>
      </cc:Work>
    </rdf:RDF>
  </metadata>
  <g
     inkscape:label="Layer 1"
     inkscape:groupmode="layer"
     id="layer1"
     transform="translate(0,-280.06665)">
    <g
       style="display:inline;enable-background:new"
       transform="matrix(0.35277748,0,0,0.35277748,-148.62148,265.60278)"
       id="g2352">
      <rect
         inkscape:label="48x48"
         y="40.999992"
         x="421.28961"
         height="48"
         width="48"
         id="rect2342"
         style="display:inline;overflow:visible;visibility:visible;fill:none;fill-opacity:1;fill-rule:nonzero;stroke:none;stroke-width:1.99999988;marker:none;enable-background:accumulate" />
      <rect
         transform="matrix(0,-1,-1,0,0,0)"
         style="display:inline;opacity:0.2;fill:#000000;fill-opacity:1;stroke:none;stroke-width:1.02439022;stroke-miterlimit:4;stroke-dasharray:none;stroke-opacity:0.25098039;enable-background:new"
         id="rect2344"
         width="42"
         height="42"
         x="-86.999992"
         y="-466.28967"
         rx="21"
         ry="21" />
      <rect
         transform="matrix(0,-1,-1,0,0,0)"
         style="display:inline;opacity:0.1;fill:#000000;fill-opacity:1;stroke:none;stroke-width:1.04999995;stroke-opacity:0.25098039;enable-background:new"
         id="rect2346"
         width="42"
         height="42"
         x="-86.999992"
         y="-466.28967"
         rx="21"
         ry="21" />
      <rect
         ry="21"
         rx="21"
         y="-466.28967"
         x="-85.999992"
         height="42"
         width="42"
         id="rect2348"
         style="display:inline;fill:#c8c4b7;fill-opacity:1;stroke:none;stroke-width:1.02439022;stroke-miterlimit:4;stroke-dasharray:none;stroke-opacity:0.25098039;enable-background:new"
         transform="matrix(0,-1,-1,0,0,0)" />
      <path
         id="path2350"
         style="color:#000000;font-weight:400;line-height:normal;font-family:sans-serif;-inkscape-font-specification:sans-serif;text-indent:0;text-align:start;text-decoration:none;text-decoration-line:none;text-transform:none;overflow:visible;fill:#ffffff;fill-opacity:1;stroke-width:1.45031071;marker:none"
         overflow="visible"
         font-weight="400"
         d="m 446.21788,55.960217 c -3.12977,0.0029 -5.78964,1.930363 -7.06011,4.687404 l -0.0885,0.18854 -0.20159,0.0145 c -2.89192,0.208845 -5.18051,2.712081 -5.18051,5.754833 0,3.180531 2.48873,5.78964 5.56629,5.78964 h 13.46469 c 2.30889,0 4.17399,-1.957919 4.17399,-4.333528 a 4.2900189,4.2900189 0 0 0 -2.61781,-3.9666 l -0.19869,-0.08412 -0.0145,-0.216096 c -0.19579,-4.34078 -3.60692,-7.831678 -7.83747,-7.834578 z m 0,1.45031 c 3.43434,0.0029 6.22474,2.831007 6.38862,6.449532 v 0.0145 L 452.6805,65 l 1.01957,0.430742 a 2.8194039,2.8194039 0 0 1 1.73312,2.630864 c 0.0145,1.615646 -1.22551,2.883217 -2.71208,2.883217 h -13.46907 c -2.25668,0 -4.11598,-1.91441 -4.11598,-4.339329 0,-2.316146 1.71862,-4.156591 3.83607,-4.311774 l 1.04858,-0.07251 0.44959,-0.960106 v -0.0058 c 1.05583,-2.291491 3.20954,-3.843323 5.74468,-3.843323 z"
         inkscape:connector-curvature="0" />
    </g>
  </g>
</svg>
