<?xml version="1.0" encoding="UTF-8" standalone="no"?>
<!-- Created with Inkscape (http://www.inkscape.org/) -->

<svg
   xmlns:dc="http://purl.org/dc/elements/1.1/"
   xmlns:cc="http://creativecommons.org/ns#"
   xmlns:rdf="http://www.w3.org/1999/02/22-rdf-syntax-ns#"
   xmlns:svg="http://www.w3.org/2000/svg"
   xmlns="http://www.w3.org/2000/svg"
   xmlns:sodipodi="http://sodipodi.sourceforge.net/DTD/sodipodi-0.dtd"
   xmlns:inkscape="http://www.inkscape.org/namespaces/inkscape"
   width="64"
   height="64"
   viewBox="0 0 16.933333 16.933334"
   version="1.1"
   id="svg873"
   inkscape:version="0.92.4 (unknown)"
   sodipodi:docname="emblem-dropbox-syncing.svg">
  <defs
     id="defs867" />
  <sodipodi:namedview
     id="base"
     pagecolor="#ffffff"
     bordercolor="#666666"
     borderopacity="1.0"
     inkscape:pageopacity="0.0"
     inkscape:pageshadow="2"
     inkscape:zoom="6.890625"
     inkscape:cx="20.983882"
     inkscape:cy="36.201046"
     inkscape:document-units="px"
     inkscape:current-layer="layer1"
     showgrid="false"
     units="px"
     inkscape:window-width="1855"
     inkscape:window-height="1056"
     inkscape:window-x="65"
     inkscape:window-y="24"
     inkscape:window-maximized="1" />
  <metadata
     id="metadata870">
    <rdf:RDF>
      <cc:Work
         rdf:about="">
        <dc:format>image/svg+xml</dc:format>
        <dc:type
           rdf:resource="http://purl.org/dc/dcmitype/StillImage" />
        <dc:title></dc:title>
      </cc:Work>
    </rdf:RDF>
  </metadata>
  <g
     inkscape:label="Layer 1"
     inkscape:groupmode="layer"
     id="layer1"
     transform="translate(0,-280.06665)">
    <g
       style="display:inline;enable-background:new"
       id="g2180"
       transform="matrix(0.35277748,0,0,0.35277748,-152.39986,265.60278)">
      <rect
         style="display:inline;overflow:visible;visibility:visible;fill:none;fill-opacity:1;fill-rule:nonzero;stroke:none;stroke-width:1.99999988;marker:none;enable-background:accumulate"
         id="rect48x48-7"
         width="48"
         height="48"
         x="432"
         y="41"
         inkscape:label="48x48" />
      <rect
         ry="21"
         rx="21"
         y="-477.00003"
         x="-87"
         height="42"
         width="42"
         id="rect894-4"
         style="display:inline;opacity:0.2;fill:#000000;fill-opacity:1;stroke:none;stroke-width:1.02439022;stroke-miterlimit:4;stroke-dasharray:none;stroke-opacity:0.25098039;enable-background:new"
         transform="matrix(0,-1,-1,0,0,0)" />
      <rect
         ry="21"
         rx="21"
         y="-477.00003"
         x="-87"
         height="42"
         width="42"
         id="rect917-5"
         style="display:inline;opacity:0.1;fill:#000000;fill-opacity:1;stroke:none;stroke-width:1.04999995;stroke-opacity:0.25098039;enable-background:new"
         transform="matrix(0,-1,-1,0,0,0)" />
      <rect
         transform="matrix(0,-1,-1,0,0,0)"
         style="display:inline;fill:#5884f4;fill-opacity:1;stroke:none;stroke-width:1.02439022;stroke-miterlimit:4;stroke-dasharray:none;stroke-opacity:0.25098039;enable-background:new"
         id="rect4408-2"
         width="42"
         height="42"
         x="-86"
         y="-477.00003"
         rx="21"
         ry="21" />
      <g
         transform="matrix(1.1141428,0,0,1.1141428,444.29268,55.782552)"
         style="fill:#ffffff;fill-opacity:1"
         id="g1804">
        <path
           style="fill:#ffffff;fill-opacity:1;stroke-width:1.33529937"
           inkscape:connector-curvature="0"
           d="m 1.7630647,11.55129 a 9.3417546,9.3417546 0 0 0 8.7448763,6.068936 9.3470958,9.3470958 0 0 0 8.416392,-5.299803 l 1.601024,1.02551 c 0.125518,-0.883969 0.22433,-1.805325 0.292431,-2.762735 0.06276,-0.9493979 0.09748,-1.8827722 0.104153,-2.7974523 a 46.045129,46.045129 0 0 0 -4.892537,2.6759403 v 0.0027 l 1.759925,1.128328 A 8.0117964,8.0117964 0 0 1 10.507941,16.284927 8.0077905,8.0077905 0 0 1 3.012905,11.083935 Z M 0.09394052,8.7605143 a 46.045129,46.045129 0 0 0 4.89253698,-2.67594 v -0.00134 L 3.2265529,4.954911 A 8.0117964,8.0117964 0 0 1 10.507941,0.2613336 c 3.43439,0 6.356025,2.1631851 7.495036,5.1996559 l 1.24984,-0.4673548 A 9.3417546,9.3417546 0 0 0 10.507941,-1.0739658 9.3470958,9.3470958 0 0 0 2.0915484,4.2258375 L 0.49052444,3.1989923 A 39.476791,39.476791 0 0 0 0.19942917,5.9630621 C 0.1353348,6.9111246 0.10061702,7.8458342 0.09394052,8.7605143 Z"
           id="path1802" />
      </g>
    </g>
  </g>
</svg>
